Exploratory Data Analysis (Project 1)
…
Election08_SAT %>% filter(sat >= mean(sat), ObamaWin == 0) %>% 
    summarize(count = n())

## # A tibble: 1 x 1
##   count
##   <int>
## 1    16

Arrange

Election08_SAT %>% arrange(Dem.Rep)

## # A tibble: 50 x 10
##    State          Abr   Income    HS    BA Dem.Rep ObamaWin verbal  math   sat
##    <chr>          <chr>  <dbl> <dbl> <dbl>   <dbl>    <dbl>  <dbl> <dbl> <dbl>
##  1 Utah           UT     31189  90.2  28.7     -23        0    513   563  1076
##  2 Wyoming        WY     43226  91.2  23.4     -20        0    476   525  1001
##  3 Idaho          ID     31197  88.4  24.5     -15        0    468   511   979
##  4 Alaska         AK     40352  90.5  26       -11        0    445   489   934
##  5 Nebraska       NE     36471  89.6  27.5      -7        0    494   556  1050
##  6 Kansas         KS     36768  89.1  28.8      -2        0    503   557  1060
##  7 Alabama        AL     32404  80.4  21.4      -1        0    491   538  1029
##  8 Arizona        AZ     33029  83.5  25.3       0        0    448   496   944
##  9 South Carolina SC     31013  82.1  23.5       0        0    401   443   844
## 10 Mississippi    MS     28845  78.5  18.9       1        0    496   540  1036
## # … with 40 more rows
…
Election08_SAT %>% group_by(sat_cat) %>% summarize(mean_Dem.Rep = mean(Dem.Rep, 
    na.rm = T), sd_Dem.Rep = sd(Dem.Rep, na.rm = T), min_Dem.Rep = min(Dem.Rep, 
    na.rm = T), max_Dem.Rep = max(Dem.Rep, na.rm = T), mean_HS = mean(HS, 
    na.rm = T), sd_HS = sd(HS, na.rm = T), min_HS = min(HS, na.rm = T), 
    max_HS = max(HS, na.rm = T), mean_BA = mean(BA, na.rm = T), 
    sd_BA = sd(BA, na.rm = T), min_BA = min(HS, na.rm = T), max_BA = max(BA, 
        na.rm = T), mean_verbal = mean(verbal, na.rm = T), sd_verbal = sd(verbal, 
        na.rm = T), min_verbal = min(verbal, na.rm = T), max_verbal = max(verbal, 
        na.rm = T), mean_math = mean(math, na.rm = T), sd_math = sd(math, 
        na.rm = T), min_math = min(math, na.rm = T), max_math = max(math, 
        na.rm = T), mean_Income = mean(Income, na.rm = T), sd_Income = sd(Income, 
        na.rm = T), min_Income = min(Income, na.rm = T), max_Income = max(Income, 
        na.rm = T), count = n()) %>% pivot_longer(-1)

## # A tibble: 75 x 3
##    sat_cat name          value
##    <chr>   <chr>         <dbl>
##  1 high    mean_Dem.Rep   5.15
##  2 high    sd_Dem.Rep    12.2 
##  3 high    min_Dem.Rep  -23   
##  4 high    max_Dem.Rep   24   
##  5 high    mean_HS       86.2 
##  6 high    sd_HS          4.17
##  7 high    min_HS        78.5 
##  8 high    max_HS        91.2 
##  9 high    mean_BA       24.7 
## 10 high    sd_BA          3.37
## # … with 65 more rows
…
